ISSS624 - In-class Exercise 2: Global and Local Measures of Spatial Association - sfdep methods
…
Next, local_gstar_perm() of sfdep package will be used to compute local Gi* statistics as shown in the code chunk below.

HCSA <- wm_idw %>% 
  mutate(local_Gi = local_gstar_perm(
    GDPPC, nb, wt, nsim = 499),
         .before = 1) %>%
  unnest(local_Gi)
HCSA

Simple feature collection with 88 features and 16 fields
Geometry type: POLYGON
Dimension:     XY
Bounding box:  xmin: 108.7831 ymin: 24.6342 xmax: 114.2544 ymax: 30.12812
Geodetic CRS:  WGS 84
# A tibble: 88 × 17
   gi_star   e_gi    var_gi p_value   p_sim p_folded_sim skewness kurtosis nb   
     <dbl>  <dbl>     <dbl>   <dbl>   <dbl>        <dbl>    <dbl>    <dbl> <nb> 
 1  0.0416 0.0114   6.24e-6  0.0472 9.62e-1        0.84     0.42     0.739 <int>
 2 -0.333  0.0112   6.39e-6 -0.301  7.64e-1        0.932    0.466    0.852 <int>
 3  0.281  0.0125   7.83e-6 -0.0911 9.27e-1        0.872    0.436    1.01  <int>
 4  0.411  0.0113   7.14e-6  0.508  6.11e-1        0.568    0.284    0.868 <int>
 5  0.387  0.0114   7.81e-6  0.421  6.74e-1        0.54     0.27     1.25  <int>
 6 -0.368  0.0116   6.81e-6 -0.478  6.33e-1        0.764    0.382    0.914 <int>
 7  3.56   0.0146   7.04e-6  2.84   4.56e-3        0.032    0.016    1.09  <int>
 8  2.52   0.0135   5.08e-6  1.69   9.14e-2        0.148    0.074    0.797 <int>
 9  4.56   0.0141   4.57e-6  4.12   3.71e-5        0.008    0.004    1.03  <int>
10  1.16   0.0109   4.92e-6  1.35   1.76e-1        0.208    0.104    0.597 <int>
# ℹ 78 more rows
# ℹ 8 more variables: wts <list>, NAME_2 <chr>, ID_3 <int>, NAME_3 <chr>,
#   ENGTYPE_3 <chr>, County <chr>, GDPPC <dbl>, geometry <POLYGON [°]>
…
